CodeEditingAction 1639418443080 Game.java CHANGE Game.java CLASS
EditAction 1639418443084 Game.java 2705 8 11 0
EditAction 1639418443181 Game.java 2705 8 11 0
EditAction 1639418443752 Game.java 2705 8 11 0
TestFailureAction 1639418444266 bsk.java FAIL
CodeEditingAction 1639418457245 Game.java CHANGE Game.java CLASS
EditAction 1639418457246 Game.java 2705 8 11 0
EditAction 1639418457298 Game.java 2705 8 11 0
EditAction 1639418457739 Game.java 2705 8 11 0
TestFailureAction 1639418458243 bsk.java FAIL
